{
  "files": {
    "main.css": "/static/css/main.5f361e03.chunk.css",
    "main.js": "/static/js/main.12b997bd.chunk.js",
    "main.js.map": "/static/js/main.12b997bd.chunk.js.map",
    "runtime-main.js": "/static/js/runtime-main.e9b0d692.js",
    "runtime-main.js.map": "/static/js/runtime-main.e9b0d692.js.map",
    "static/js/2.fa15df55.chunk.js": "/static/js/2.fa15df55.chunk.js",
    "static/js/2.fa15df55.chunk.js.map": "/static/js/2.fa15df55.chunk.js.map",
    "index.html": "/index.html",
    "precache-manifest.97cdc896914ec7df67b47a6ddab45f85.js": "/precache-manifest.97cdc896914ec7df67b47a6ddab45f85.js",
    "service-worker.js": "/service-worker.js",
    "static/css/main.5f361e03.chunk.css.map": "/static/css/main.5f361e03.chunk.css.map",
    "static/js/2.fa15df55.chunk.js.LICENSE.txt": "/static/js/2.fa15df55.chunk.js.LICENSE.txt",
    "static/media/logo.svg": "/static/media/logo.5d5d9eef.svg"
  },
  "entrypoints": [
    "static/js/runtime-main.e9b0d692.js",
    "static/js/2.fa15df55.chunk.js",
    "static/css/main.5f361e03.chunk.css",
    "static/js/main.12b997bd.chunk.js"
  ]
}